<?xml version="1.0" encoding="UTF-8" standalone="no"?>
<!DOCTYPE svg PUBLIC "-//W3C//DTD SVG 1.1//EN" "http://www.w3.org/Graphics/SVG/1.1/DTD/svg11.dtd">
<svg width="100%" height="100%" viewBox="0 0 512 512" version="1.1" xmlns="http://www.w3.org/2000/svg" xmlns:xlink="http://www.w3.org/1999/xlink" xml:space="preserve" xmlns:serif="http://www.serif.com/" style="fill-rule:evenodd;clip-rule:evenodd;stroke-linejoin:round;stroke-miterlimit:2;">
    <path d="M201.542,29.896L279.916,30.078L286.18,42.355L308.549,42.24L503.523,379.945L461.35,451.887L291.857,451.963L308.525,482.104L300.251,481.987L283.372,451.87L71.423,451.768L60.306,432.193L47.453,432.225L8.477,365.842L58.312,279.142L103.515,251.696L180.252,120.952L164.461,94.939L201.542,29.896ZM247.22,148.579L113.24,380.124L241.613,380.751L226.338,353.912L366.752,354.838L247.22,148.579Z" style="fill:rgb(0,255,255);"/>
</svg>
