<?xml version="1.0" encoding="UTF-8" standalone="no"?>
<!DOCTYPE svg PUBLIC "-//W3C//DTD SVG 1.1//EN" "http://www.w3.org/Graphics/SVG/1.1/DTD/svg11.dtd">
<svg width="100%" height="100%" viewBox="0 0 512 512" version="1.1" xmlns="http://www.w3.org/2000/svg" xmlns:xlink="http://www.w3.org/1999/xlink" xml:space="preserve" xmlns:serif="http://www.serif.com/" style="fill-rule:evenodd;clip-rule:evenodd;stroke-linejoin:round;stroke-miterlimit:2;">
    <path d="M185.959,107.497L226.375,147.913C224.853,151.639 224.015,155.715 224.015,159.985C224.015,173.396 232.285,184.89 244,189.64L244,328.331C232.285,333.081 224.015,344.575 224.015,357.985C224.015,375.639 238.347,389.971 256,389.971C273.653,389.971 287.985,375.639 287.985,357.985C287.985,344.575 279.715,333.081 268,328.331L268,189.64C268.024,189.63 268.048,189.62 268.073,189.61L314.365,235.902C312.84,239.631 312,243.711 312,247.985C312,265.639 326.332,279.971 343.985,279.971C361.639,279.971 375.971,265.639 375.971,247.985C375.971,230.332 361.639,216 343.985,216C339.405,216 335.047,216.965 331.106,218.703L285.278,172.875C287.019,168.931 287.985,164.57 287.985,159.985C287.985,142.332 273.653,128 256,128C251.415,128 247.054,128.967 243.111,130.707L202.929,90.526L239.629,53.826C249.002,44.453 264.198,44.453 273.57,53.826L462.673,242.929C472.046,252.301 472.046,267.497 462.673,276.87L273.57,465.972C264.198,475.345 249.002,475.345 239.629,465.972L50.527,276.87C41.154,267.497 41.154,252.301 50.527,242.929L185.959,107.497Z" style="fill:rgb(0,255,255);"/>
</svg>
